{
    "data_root": "",
    "tar_wrapper": false,
    "epochs": [],
    "train_img_dim": [512, 512, 3],
    "inference_img_dim": [512, 512, 3],
    "test": 
        {
            "unstained": [
                "sample_18_unstained.tif",
                "sample_25_unstained.tif",
                "sample_38_unstained.tif",
                "sample_42_unstained.tif",
                "sample_46_unstained.tif"
            ],
            "stained": [
                "sample_18_stained.tif",
                "sample_25_stained.tif",
                "sample_38_stained.tif",
                "sample_42_stained.tif",
                "sample_46_stained.tif"
            ]
        }
}