{
    "data_source": "",
    "epochs": [],
    "merge_type": "simple",
    "tile_format": "jpg",
    "paired_wsi": true,
    "test": 
        {
            "unstained": [
                "sample_18_unstained.tif",
                "sample_25_unstained.tif",
                "sample_38_unstained.tif",
                "sample_42_unstained.tif",
                "sample_46_unstained.tif"
            ],
            "stained": [
                "sample_18_stained.tif",
                "sample_25_stained.tif",
                "sample_38_stained.tif",
                "sample_42_stained.tif",
                "sample_46_stained.tif"
            ]
        },
    "tile_size": 512,
    "stride": 512 
}